{
"status":"OK",
"data":[
  {
    "id": 1,
    "name": "sajeer",
    "contactNO": "3332381245",
    "address": "f-10 markas islamabad",
    "createdAt": "2017-02-16T18:34:47.000Z",
    "updatedAt": "2017-02-16T18:34:47.000Z"
  },
  {
    "id": 2,
    "name": "ahmed",
    "contactNO": "3332345245",
    "address": "f-10 markas islamabad",
    "createdAt": "2017-02-16T18:35:21.000Z",
    "updatedAt": "2017-02-16T18:35:21.000Z"
  },
  {
    "id": 3,
    "name": "adnan",
    "contactNO": "3322345245",
    "address": "f-10 markas peshawar",
    "createdAt": "2017-02-16T18:35:51.000Z",
    "updatedAt": "2017-02-16T18:35:51.000Z"
  },
  {
    "id": 4,
    "name": "muffi",
    "contactNO": "3222345245",
    "address": "g-10 markas peshawar",
    "createdAt": "2017-02-16T18:36:12.000Z",
    "updatedAt": "2017-02-16T18:36:12.000Z"
  },
  {
    "id": 5,
    "name": "khana",
    "contactNO": "3227845245",
    "address": "g-20 peshawar",
    "createdAt": "2017-02-16T18:36:32.000Z",
    "updatedAt": "2017-02-16T18:36:32.000Z"
  },
  {
    "id": 6,
    "name": "jalal",
    "contactNO": "3227845255",
    "address": "g-20 multan",
    "createdAt": "2017-02-16T18:36:49.000Z",
    "updatedAt": "2017-02-16T18:36:49.000Z"
  },
  {
    "id": 7,
    "name": "bilal",
    "contactNO": "3227875255",
    "address": "g-20 karachi",
    "createdAt": "2017-02-16T18:37:18.000Z",
    "updatedAt": "2017-02-16T18:37:18.000Z"
  },
  {
    "id": 8,
    "name": "grewal",
    "contactNO": "3227875855",
    "address": "g-20 lahore",
    "createdAt": "2017-02-16T18:37:37.000Z",
    "updatedAt": "2017-02-16T18:37:37.000Z"
  },
  {
    "id": 9,
    "name": "hasan",
    "contactNO": "3223875855",
    "address": "g-20 larkana",
    "createdAt": "2017-02-16T18:38:00.000Z",
    "updatedAt": "2017-02-16T18:38:00.000Z"
  },
  {
    "id": 10,
    "name": "mahmood",
    "contactNO": "3223845855",
    "address": "g-20 larkana",
    "createdAt": "2017-02-16T18:38:10.000Z",
    "updatedAt": "2017-02-16T18:38:10.000Z"
  },
  {
    "id": 11,
    "name": "abid",
    "contactNO": "3223841855",
    "address": "g-20 dera ghazi",
    "createdAt": "2017-02-16T18:38:30.000Z",
    "updatedAt": "2017-02-16T18:38:30.000Z"
  },
  {
    "id": 12,
    "name": "ijaz",
    "contactNO": "3223846855",
    "address": "g-20 dera khan",
    "createdAt": "2017-02-16T18:38:57.000Z",
    "updatedAt": "2017-02-16T18:38:57.000Z"
  }
],
"meta":{
    "page":1,
    "total_pages":12,
    "count":1054,
    "next":"mess.heroku.com/api/supplier?page=2"
}
}